\relax 
\providecommand\hyper@newdestlabel[2]{}
\providecommand{\transparent@use}[1]{}
\catcode `"\active 
\providecommand\HyperFirstAtBeginDocument{\AtBeginDocument}
\HyperFirstAtBeginDocument{\ifx\hyper@anchor\@undefined
\global\let\oldcontentsline\contentsline
\gdef\contentsline#1#2#3#4{\oldcontentsline{#1}{#2}{#3}}
\global\let\oldnewlabel\newlabel
\gdef\newlabel#1#2{\newlabelxx{#1}#2}
\gdef\newlabelxx#1#2#3#4#5#6{\oldnewlabel{#1}{{#2}{#3}}}
\AtEndDocument{\ifx\hyper@anchor\@undefined
\let\contentsline\oldcontentsline
\let\newlabel\oldnewlabel
\fi}
\fi}
\global\let\hyper@last\relax 
\gdef\HyperFirstAtBeginDocument#1{#1}
\providecommand\HyField@AuxAddToFields[1]{}
\providecommand\HyField@AuxAddToCoFields[2]{}
\transparent@use{.4}
\providecommand \oddpage@label [2]{}
\select@language{brazil}
\@writefile{toc}{\select@language{brazil}}
\@writefile{lof}{\select@language{brazil}}
\@writefile{lot}{\select@language{brazil}}
\select@language{brazil}
\@writefile{toc}{\select@language{brazil}}
\@writefile{lof}{\select@language{brazil}}
\@writefile{lot}{\select@language{brazil}}
\@writefile{lof}{\contentsline {figure}{\numberline {1}{\ignorespaces Tela de login do sistema Vibox.\relax }}{1}{figure.caption.1}}
\providecommand*\caption@xref[2]{\@setref\relax\@undefined{#1}}
\newlabel{Fig:Tela_Login}{{1}{1}{Tela de login do sistema Vibox.\relax }{figure.caption.1}{}}
\transparent@use{.4}
\@writefile{lof}{\contentsline {figure}{\numberline {2}{\ignorespaces Tela para cria\IeC {\c c}\IeC {\~a}o de um novo trabalho.\relax }}{2}{figure.caption.2}}
\newlabel{Fig:Novo_Trabalho}{{2}{2}{Tela para criação de um novo trabalho.\relax }{figure.caption.2}{}}
\@writefile{lof}{\contentsline {figure}{\numberline {3}{\ignorespaces Tela de opera\IeC {\c c}\IeC {\~o}es de cust\IeC {\'o}dia dos trabalhos.\relax }}{2}{figure.caption.3}}
\newlabel{Fig:Edita_Trabalho}{{3}{2}{Tela de operações de custódia dos trabalhos.\relax }{figure.caption.3}{}}
\transparent@use{.4}
\@writefile{lof}{\contentsline {figure}{\numberline {4}{\ignorespaces Tela para envio dos arquivos de \IeC {\'a}udio.\relax }}{3}{figure.caption.4}}
\newlabel{Fig:Envia_Audios}{{4}{3}{Tela para envio dos arquivos de áudio.\relax }{figure.caption.4}{}}
\transparent@use{.4}
\@writefile{lof}{\contentsline {figure}{\numberline {5}{\ignorespaces Progresso do envio dos arquivos de \IeC {\'a}udio.\relax }}{4}{figure.caption.5}}
\newlabel{Fig:Upload_Audios}{{5}{4}{Progresso do envio dos arquivos de áudio.\relax }{figure.caption.5}{}}
\transparent@use{.4}
\@writefile{lof}{\contentsline {figure}{\numberline {6}{\ignorespaces Interface para sele\IeC {\c c}\IeC {\~a}o dos arquivos comparados.\relax }}{5}{figure.caption.6}}
\newlabel{Fig:Seleciona_Comparacao}{{6}{5}{Interface para seleção dos arquivos comparados.\relax }{figure.caption.6}{}}
\@writefile{lof}{\contentsline {figure}{\numberline {7}{\ignorespaces Tabela indicando o andamento das compara\IeC {\c c}\IeC {\~o}es.\relax }}{5}{figure.caption.7}}
\newlabel{Fig:Tabela_Comparacoes}{{7}{5}{Tabela indicando o andamento das comparações.\relax }{figure.caption.7}{}}
\@writefile{lof}{\contentsline {figure}{\numberline {8}{\ignorespaces Tabela indicando que a compara\IeC {\c c}\IeC {\~a}o foi processada.\relax }}{5}{figure.caption.8}}
\newlabel{Fig:Tabela_Processado}{{8}{5}{Tabela indicando que a comparação foi processada.\relax }{figure.caption.8}{}}
\transparent@use{.4}
\@writefile{lof}{\contentsline {figure}{\numberline {9}{\ignorespaces Tela de visualiza\IeC {\c c}\IeC {\~a}o do resultado da compara\IeC {\c c}\IeC {\~a}o.\relax }}{6}{figure.caption.9}}
\newlabel{Fig:Resultado_Comparacao}{{9}{6}{Tela de visualização do resultado da comparação.\relax }{figure.caption.9}{}}
\transparent@use{.4}
\@writefile{lof}{\contentsline {figure}{\numberline {10}{\ignorespaces Tabela indicando o andamento das compara\IeC {\c c}\IeC {\~o}es.\relax }}{7}{figure.caption.10}}
\newlabel{Fig:Informacoes_Laudo}{{10}{7}{Tabela indicando o andamento das comparações.\relax }{figure.caption.10}{}}
\@writefile{lof}{\contentsline {figure}{\numberline {11}{\ignorespaces Tabela indicando o andamento das compara\IeC {\c c}\IeC {\~o}es.\relax }}{7}{figure.caption.11}}
\newlabel{Fig:Tabela_gerando_relatorio}{{11}{7}{Tabela indicando o andamento das comparações.\relax }{figure.caption.11}{}}
\@writefile{lof}{\contentsline {figure}{\numberline {12}{\ignorespaces Tabela indicando o andamento das compara\IeC {\c c}\IeC {\~o}es.\relax }}{7}{figure.caption.12}}
\newlabel{Fig:Tabela_finalizado}{{12}{7}{Tabela indicando o andamento das comparações.\relax }{figure.caption.12}{}}
\transparent@use{.4}
\@writefile{lof}{\contentsline {figure}{\numberline {13}{\ignorespaces Tabela indicando o andamento das compara\IeC {\c c}\IeC {\~o}es.\relax }}{8}{figure.caption.13}}
\newlabel{Fig:Tela_Laudo}{{13}{8}{Tabela indicando o andamento das comparações.\relax }{figure.caption.13}{}}
\@writefile{lof}{\contentsline {figure}{\numberline {14}{\ignorespaces Imagem da primeira p\IeC {\'a}gina de um laudo pericial de exemplo.\relax }}{8}{figure.caption.14}}
\newlabel{Fig:Pagina_laudo}{{14}{8}{Imagem da primeira página de um laudo pericial de exemplo.\relax }{figure.caption.14}{}}
\transparent@use{.4}
\newlabel{LastPage}{{}{9}{}{page.9}{}}
\xdef\lastpage@lastpage{9}
\xdef\lastpage@lastpageHy{9}
\xwm@secstopagerange{{10000}{9}}
\newlabel{xwmlastpage}{{}{9}{\relax }{figure.caption.14}{}}
